<?xml version="1.0" encoding="UTF-8" standalone="no"?>
<!-- Created with Inkscape (http://www.inkscape.org/) -->

<svg
   xmlns:dc="http://purl.org/dc/elements/1.1/"
   xmlns:cc="http://creativecommons.org/ns#"
   xmlns:rdf="http://www.w3.org/1999/02/22-rdf-syntax-ns#"
   xmlns:svg="http://www.w3.org/2000/svg"
   xmlns="http://www.w3.org/2000/svg"
   xmlns:sodipodi="http://sodipodi.sourceforge.net/DTD/sodipodi-0.dtd"
   xmlns:inkscape="http://www.inkscape.org/namespaces/inkscape"
   width="250"
   height="150"
   id="svg2989"
   version="1.1"
   inkscape:version="0.48.4 r9939"
   sodipodi:docname="FindStudent.svg"
   inkscape:export-filename="C:\Users\rendon\Documents\Visual Studio 2012\Projects\TPA_01_Databases\Icons\FindStudent.png"
   inkscape:export-xdpi="90"
   inkscape:export-ydpi="90">
  <defs
     id="defs2991" />
  <sodipodi:namedview
     id="base"
     pagecolor="#ffffff"
     bordercolor="#666666"
     borderopacity="1.0"
     inkscape:pageopacity="0.0"
     inkscape:pageshadow="2"
     inkscape:zoom="2"
     inkscape:cx="7.7683658"
     inkscape:cy="112.74588"
     inkscape:document-units="px"
     inkscape:current-layer="layer1"
     showgrid="true"
     inkscape:window-width="1366"
     inkscape:window-height="706"
     inkscape:window-x="-8"
     inkscape:window-y="-8"
     inkscape:window-maximized="1">
    <inkscape:grid
       type="xygrid"
       id="grid3037"
       empspacing="5"
       visible="true"
       enabled="true"
       snapvisiblegridlinesonly="true" />
  </sodipodi:namedview>
  <metadata
     id="metadata2994">
    <rdf:RDF>
      <cc:Work
         rdf:about="">
        <dc:format>image/svg+xml</dc:format>
        <dc:type
           rdf:resource="http://purl.org/dc/dcmitype/StillImage" />
        <dc:title></dc:title>
      </cc:Work>
    </rdf:RDF>
  </metadata>
  <g
     inkscape:label="Layer 1"
     inkscape:groupmode="layer"
     id="layer1"
     transform="translate(0,-902.36218)">
    <rect
       style="fill:#0066cc;fill-opacity:1;stroke:none"
       id="rect3017"
       width="250"
       height="150"
       x="0.065038115"
       y="902.30402" />
    <text
       xml:space="preserve"
       style="font-size:40px;font-style:normal;font-weight:normal;line-height:125%;letter-spacing:0px;word-spacing:0px;fill:#000000;fill-opacity:1;stroke:none;font-family:Sans"
       x="123.44141"
       y="971.93835"
       id="text3046"
       sodipodi:linespacing="125%"><tspan
         sodipodi:role="line"
         x="123.44141"
         y="971.93835"
         id="tspan3050"
         style="font-size:28px;font-style:normal;font-variant:normal;font-weight:normal;font-stretch:normal;fill:#ffffff;font-family:Meiryo UI;-inkscape-font-specification:Meiryo UI">Buscar</tspan><tspan
         sodipodi:role="line"
         x="123.44141"
         y="1006.9384"
         style="font-size:28px;font-style:normal;font-variant:normal;font-weight:normal;font-stretch:normal;fill:#ffffff;font-family:Meiryo UI;-inkscape-font-specification:Meiryo UI"
         id="tspan2993">Alumno</tspan></text>
    <g
       id="g3030"
       transform="matrix(0.30356609,0,0,0.3597731,34,936.35516)">
      <path
         id="path3032"
         d="M 199.98425,0.35433071 C 161.11417,5.6692914 143.22047,58.358269 179.00787,81.56693 c 8.64567,5.598426 19.70079,8.291339 29.97638,7.192914 4.1811,-0.425197 12.57874,-5.066929 16.26377,-2.870079 11.05512,6.519685 20.40945,33.448815 35.75197,30.472445 7.54725,-1.45276 10.94882,-9.5315 8.14961,-16.405516 C 264.3307,88.015749 246.89763,81.2126 243.42519,68.952757 l 3.40157,-12.011811 1.1693,-18.000001 C 247.35826,15.448819 222.44881,-2.6929134 199.98425,0.35433071 M 103.99606,11.374016 C 37.381889,21.791339 32.421259,121.57087 98.007871,138.04725 106.86614,140.27953 116.96456,140.91733 126,139.5 c 16.79527,-2.62205 33.09448,-12.40157 42.62598,-26.5748 2.30315,-3.36614 7.65354,-10.41732 6.55512,-14.775592 -1.063,-4.14567 -10.09843,-8.291339 -13.18111,-11.232284 -7.937,-7.582677 -14.38582,-16.370079 -17.5748,-26.964567 -2.87008,-9.673229 -3.11811,-19.204725 -0.77953,-29.019686 0.8504,-3.472441 4.67717,-9.885827 1.73623,-13.03937 -8.14961,-8.6811024 -30.68504,-8.1850394 -41.38583,-6.519685 z"
         style="fill:#ffffff;fill-opacity:1;fill-rule:nonzero;stroke:none"
         inkscape:connector-curvature="0" />
      <path
         id="path3034"
         d="m 197.99999,18.46063 c -34.05118,7.830709 -20.76378,59.598426 13.00394,51.803151 33.41339,-7.72441 20.01968,-59.385828 -13.00394,-51.803151 z"
         style="fill:#0066cc;fill-opacity:1;fill-rule:nonzero;stroke:none"
         inkscape:connector-curvature="0" />
      <path
         id="path3036"
         d="m 160.01574,146.94095 c -8.7874,20.40945 -15.76771,47.97638 -19.02756,70.01575 -11.51574,-0.14174 -13.60629,-13.00394 -17.6811,-22.00394 -1.55905,-3.47244 -4.53543,-8.11417 -3.93307,-12.01181 l 10.62992,-21.01181 -26.00787,0 c 3.25984,6.16535 11.05512,14.95275 11.23228,22.00393 0.17717,7.12205 -6.94488,25.05119 -11.30315,30.68504 -2.01968,2.58662 -6.803146,3.11811 -9.496059,1.31103 -4.393701,-2.97638 -4.641732,-13.25197 -5.811024,-18 L 76.996061,149.95276 C 41.527558,156.82677 3.4015747,189.35433 0,227.94095 l 233.99999,0 c -1.70078,-40.00394 -36.46063,-72.3189 -73.98425,-81 z"
         style="fill:#ffffff;fill-opacity:1;fill-rule:nonzero;stroke:none"
         inkscape:connector-curvature="0" />
    </g>
  </g>
</svg>
