<?xml version="1.0" encoding="UTF-8" standalone="no"?>
<!-- Created with Inkscape (http://www.inkscape.org/) -->

<svg
   xmlns:dc="http://purl.org/dc/elements/1.1/"
   xmlns:cc="http://creativecommons.org/ns#"
   xmlns:rdf="http://www.w3.org/1999/02/22-rdf-syntax-ns#"
   xmlns:svg="http://www.w3.org/2000/svg"
   xmlns="http://www.w3.org/2000/svg"
   xmlns:sodipodi="http://sodipodi.sourceforge.net/DTD/sodipodi-0.dtd"
   xmlns:inkscape="http://www.inkscape.org/namespaces/inkscape"
   width="250"
   height="150"
   id="svg2"
   version="1.1"
   inkscape:version="0.48.4 r9939"
   inkscape:export-filename="C:\Users\rendon\Pictures\UnenrollStudent.png"
   inkscape:export-xdpi="90"
   inkscape:export-ydpi="90"
   sodipodi:docname="UnenrollStudent.svg">
  <defs
     id="defs4" />
  <sodipodi:namedview
     id="base"
     pagecolor="#ffffff"
     bordercolor="#666666"
     borderopacity="1.0"
     inkscape:pageopacity="0.0"
     inkscape:pageshadow="2"
     inkscape:zoom="1"
     inkscape:cx="-2.4784718"
     inkscape:cy="122.08767"
     inkscape:document-units="px"
     inkscape:current-layer="layer1"
     showgrid="false"
     inkscape:window-width="1366"
     inkscape:window-height="706"
     inkscape:window-x="-8"
     inkscape:window-y="-8"
     inkscape:window-maximized="1" />
  <metadata
     id="metadata7">
    <rdf:RDF>
      <cc:Work
         rdf:about="">
        <dc:format>image/svg+xml</dc:format>
        <dc:type
           rdf:resource="http://purl.org/dc/dcmitype/StillImage" />
        <dc:title />
      </cc:Work>
    </rdf:RDF>
  </metadata>
  <g
     inkscape:label="Layer 1"
     inkscape:groupmode="layer"
     id="layer1"
     transform="translate(0,-902.36218)">
    <rect
       style="fill:#ef2929;fill-opacity:1;fill-rule:evenodd;stroke:none"
       id="rect2985"
       width="256"
       height="150"
       x="0.35714287"
       y="902.36212" />
    <text
       xml:space="preserve"
       style="font-size:40px;font-style:normal;font-weight:normal;line-height:124.00000095%;letter-spacing:0px;word-spacing:0px;fill:#000000;fill-opacity:1;stroke:none;font-family:Sans"
       x="132.93608"
       y="980.2373"
       id="text3776"
       sodipodi:linespacing="124%"><tspan
         sodipodi:role="line"
         x="132.93608"
         y="980.2373"
         style="font-size:28px;font-style:normal;font-variant:normal;font-weight:normal;font-stretch:normal;line-height:124.00000095%;fill:#ffffff;fill-opacity:1;font-family:Meiryo UI;-inkscape-font-specification:Meiryo UI"
         id="tspan2995">Baja de</tspan><tspan
         sodipodi:role="line"
         x="132.93608"
         y="1014.9573"
         style="font-size:28px;font-style:normal;font-variant:normal;font-weight:normal;font-stretch:normal;line-height:124.00000095%;fill:#ffffff;fill-opacity:1;font-family:Meiryo UI;-inkscape-font-specification:Meiryo UI"
         id="tspan2999">Materias</tspan></text>
    <text
       xml:space="preserve"
       style="font-size:40px;font-style:normal;font-weight:normal;line-height:125%;letter-spacing:0px;word-spacing:0px;fill:#000000;fill-opacity:1;stroke:none;font-family:Sans"
       x="-374"
       y="-29"
       id="text2998"
       sodipodi:linespacing="125%"
       transform="translate(0,902.36218)"><tspan
         sodipodi:role="line"
         id="tspan3000" /></text>
    <path
       inkscape:connector-curvature="0"
       style="fill:#ffffff;stroke:none"
       d="m 53.097176,936.49104 c -9.01554,1.68625 -7.21443,17.75204 2.12216,16.10157 8.9061,-1.57428 7.1344,-17.83285 -2.12216,-16.10157 m -4.24432,26.07317 -5.15381,-5.2435 c -1.42155,-1.44628 -2.92009,-3.52641 -4.85065,-4.2713 -2.87735,-1.11008 -5.3342,1.7649 -4.76607,4.57974 0.33409,1.65664 1.8293,2.87067 2.94707,4.00974 2.70849,2.76024 7.18715,9.48274 11.21713,9.83652 4.18581,0.36766 6.9619,-5.18862 10.00447,-7.36899 1.90751,3.74573 6.33585,8.94975 9.7013,11.41235 -3.05561,3.10878 -9.90473,7.79493 -10.51834,12.33766 -0.38441,2.84475 0.9956,6.1861 1.59799,8.9448 1.29149,5.91687 1.78868,13.30527 4.26736,18.81467 1.09594,2.4357 4.15216,3.4844 6.45985,2.184 2.97679,-1.6773 2.39289,-4.9239 1.71774,-7.7357 -1.15385,-4.804 -3.58645,-11.10696 -3.46215,-16.03894 0.0358,-1.42284 1.45731,-2.47062 2.36287,-3.39286 2.60025,-2.64766 5.16837,-5.55071 8.18547,-7.71104 1.54402,3.36849 7.32994,10.42347 10.91396,11.47742 4.10547,1.20724 9.67978,0.24336 13.945624,0.24336 4.36559,0 14.37066,1.52678 12.29822,-6.16883 -0.73184,-2.7186 -3.6104,-3.08071 -5.93174,-3.08441 l -9.7013,0 c -1.373644,0 -3.284804,0.33897 -4.542944,-0.31708 -2.81641,-1.46849 -5.36603,-5.88044 -7.40815,-8.31929 l -15.94015,-18.81494 5.142,0.18599 c 2.65633,1.04223 5.27932,5.66175 7.11317,7.83349 1.74593,2.0675 4.04847,6.06767 7.14743,5.78977 2.86128,-0.25663 4.00179,-3.4712 2.6242,-5.78977 -2.83763,-4.77591 -7.78499,-9.97993 -11.73099,-13.8629 -2.43927,-2.40029 -6.54898,-1.55917 -9.68948,-1.55917 -3.53945,0 -8.45741,-0.89479 -11.82345,0.26341 -1.8478,0.63569 -3.21235,2.38795 -4.54749,3.74633 -2.52506,2.5687 -5.52095,5.04702 -7.57914,8.01947 z"
       id="path6" />
  </g>
</svg>
